<svg xmlns="http://www.w3.org/2000/svg" xmlns:xlink="http://www.w3.org/1999/xlink" viewBox="10705 3878 600 315">
  <defs>
    <style>
      .cls-1 {
        fill: #808285;
      }

      .cls-19, .cls-2, .cls-49 {
        fill: #555;
      }

      .cls-3 {
        clip-path: url(#clip-social_img_small);
      }

      .cls-4 {
        fill: #8ec8fc;
      }

      .cls-5 {
        fill: #f9a690;
      }

      .cls-6 {
        fill: #ca91c8;
      }

      .cls-7 {
        fill: #f7e991;
      }

      .cls-8 {
        fill: #333;
        letter-spacing: -0.025em;
      }

      .cls-49, .cls-8 {
        font-size: 13px;
      }

      .cls-19, .cls-49, .cls-8 {
        font-family: Helvetica;
      }

      .cls-9 {
        fill: #34aeff;
      }

      .cls-10 {
        fill: #bc72db;
      }

      .cls-11, .cls-13, .cls-14, .cls-20, .cls-50, .cls-53, .cls-57 {
        fill: none;
      }

      .cls-11 {
        stroke: #6e73f9;
      }

      .cls-11, .cls-13, .cls-14, .cls-50, .cls-53 {
        stroke-miterlimit: 10;
      }

      .cls-11, .cls-13, .cls-14, .cls-20, .cls-50, .cls-53 {
        stroke-width: 3px;
      }

      .cls-12 {
        fill: #6e73f9;
      }

      .cls-13 {
        stroke: #34aeff;
      }

      .cls-14 {
        stroke: #bc72db;
      }

      .cls-15 {
        fill: #c17dbe;
        opacity: 0.89;
      }

      .cls-16 {
        fill: #f7e88b;
      }

      .cls-17 {
        fill: #f9a18a;
      }

      .cls-18 {
        fill: #88c5fc;
      }

      .cls-19 {
        font-size: 15px;
      }

      .cls-20 {
        stroke: #717171;
      }

      .cls-21, .cls-36 {
        fill: #28c3e4;
      }

      .cls-21, .cls-23 {
        font-size: 4px;
      }

      .cls-21, .cls-22, .cls-23, .cls-24, .cls-25, .cls-26 {
        font-family: Helvetica-Bold, Helvetica;
        font-weight: 700;
      }

      .cls-22, .cls-23, .cls-24, .cls-29 {
        fill: #717171;
      }

      .cls-22, .cls-25 {
        font-size: 1px;
      }

      .cls-24, .cls-26 {
        font-size: 3px;
      }

      .cls-25, .cls-34 {
        fill: #ff905e;
      }

      .cls-26, .cls-33 {
        fill: #ffdb77;
      }

      .cls-27 {
        fill: #e2e2e2;
      }

      .cls-28, .cls-55 {
        fill: #fff;
      }

      .cls-30 {
        fill: #a5a5a5;
      }

      .cls-31 {
        fill: #ff7058;
      }

      .cls-32 {
        clip-path: url(#clip-path);
      }

      .cls-35 {
        fill: #28d2e4;
      }

      .cls-37 {
        fill: #6d6e71;
      }

      .cls-38 {
        fill: #5b986c;
      }

      .cls-39 {
        fill: #454545;
      }

      .cls-40 {
        fill: #8f8f8f;
      }

      .cls-41 {
        fill: #f2f1f1;
      }

      .cls-42 {
        fill: #d5e2f2;
        opacity: 0.5;
      }

      .cls-43 {
        fill: #b5b5b5;
      }

      .cls-44 {
        fill: #ebebeb;
      }

      .cls-45 {
        fill: #b9bbc1;
      }

      .cls-46 {
        fill: #8b8996;
      }

      .cls-47 {
        fill: #50c8ef;
      }

      .cls-48 {
        fill: #777;
      }

      .cls-50 {
        stroke: #eb89b7;
      }

      .cls-51 {
        fill: #eb89b7;
      }

      .cls-52 {
        clip-path: url(#clip-path-2);
      }

      .cls-53 {
        stroke: #34ffd6;
      }

      .cls-54 {
        fill: #807e7e;
      }

      .cls-55 {
        stroke: #555;
      }

      .cls-56 {
        stroke: none;
      }
    </style>
    <clipPath id="clip-path">
      <rect id="Rectangle_151" data-name="Rectangle 151" class="cls-1" width="34.052" height="34.052"/>
    </clipPath>
    <clipPath id="clip-path-2">
      <rect id="Rectangle_181" data-name="Rectangle 181" class="cls-2" width="34.052" height="34.052" transform="translate(0)"/>
    </clipPath>
    <clipPath id="clip-social_img_small">
      <rect x="10705" y="3878" width="600" height="315"/>
    </clipPath>
  </defs>
  <g id="social_img_small" class="cls-3">
    <g id="Group_825" data-name="Group 825" transform="translate(10211 1248.495)">
      <g id="Group_500" data-name="Group 500" transform="translate(749.08 2720.286)">
        <path id="Subtraction_13" data-name="Subtraction 13" class="cls-4" d="M13.824,97.732h0A59.075,59.075,0,0,1,9.5,91.813a60.174,60.174,0,0,1-5.131-10,62.267,62.267,0,0,1,0-45.844,60.134,60.134,0,0,1,5.131-10,58.694,58.694,0,0,1,6.8-8.715,56.886,56.886,0,0,1,8.236-7.192,54.85,54.85,0,0,1,9.453-5.429A52.683,52.683,0,0,1,55.648,0h.107V14.723h-.107c-23.013,0-41.735,19.813-41.735,44.165A45.746,45.746,0,0,0,23.7,87.279L13.824,97.732Z" transform="translate(0 0.001)"/>
        <path id="Subtraction_15" data-name="Subtraction 15" class="cls-5" d="M41.824,117.776a52.682,52.682,0,0,1-21.661-4.627,54.8,54.8,0,0,1-9.452-5.429,56.887,56.887,0,0,1-8.236-7.19c-.85-.9-1.682-1.84-2.475-2.8L9.878,87.28a40.788,40.788,0,0,0,31.946,15.774c23.013,0,41.736-19.813,41.736-44.166,0-24.293-18.675-44.1-41.629-44.165V0A52.675,52.675,0,0,1,63.485,4.628a54.835,54.835,0,0,1,9.452,5.428,56.822,56.822,0,0,1,8.236,7.192,58.711,58.711,0,0,1,6.8,8.715,60.011,60.011,0,0,1,5.131,10,62.263,62.263,0,0,1,0,45.844,59.991,59.991,0,0,1-5.131,10,58.833,58.833,0,0,1-6.8,8.716,56.893,56.893,0,0,1-8.236,7.19,54.792,54.792,0,0,1-9.452,5.429A52.682,52.682,0,0,1,41.824,117.776Z" transform="translate(13.824)"/>
        <path id="Subtraction_17" data-name="Subtraction 17" class="cls-6" d="M41.825,30.5a52.679,52.679,0,0,1-21.661-4.628,54.77,54.77,0,0,1-9.453-5.429,56.912,56.912,0,0,1-8.236-7.191c-.849-.9-1.682-1.839-2.476-2.8L9.878,0A40.79,40.79,0,0,0,41.825,15.774,40.368,40.368,0,0,0,69.876,4.284c2.947,4.011,5.833,7.932,8.58,11.654a56.658,56.658,0,0,1-5.519,4.5,54.774,54.774,0,0,1-9.452,5.429A52.68,52.68,0,0,1,41.825,30.5Z" transform="translate(13.823 87.28)"/>
        <path id="Subtraction_19" data-name="Subtraction 19" class="cls-7" d="M8.385,70.062h0L0,58.248A45.353,45.353,0,0,0,14.182,25.1,45.69,45.69,0,0,0,9.661,5.118L22.8,0c.323.725.633,1.458.921,2.179A61.492,61.492,0,0,1,28.094,25.1a61.493,61.493,0,0,1-4.372,22.923,60.011,60.011,0,0,1-5.131,10A58.694,58.694,0,0,1,11.8,66.741c-1.086,1.149-2.233,2.267-3.41,3.321Z" transform="translate(83.201 33.787)"/>
        <text id="ixLayer" class="cls-8" transform="translate(53.272 83.093)"><tspan x="-19.979" y="0">ixLayer</tspan></text>
      </g>
      <path id="Path_567" data-name="Path 567" class="cls-9" d="M4.262,0A4.149,4.149,0,0,1,8.523,4.027,4.149,4.149,0,0,1,4.262,8.054,4.149,4.149,0,0,1,0,4.027,4.149,4.149,0,0,1,4.262,0Z" transform="translate(860.009 2763.291) rotate(-90)"/>
      <path id="Path_569" data-name="Path 569" class="cls-10" d="M4.262,0A4.149,4.149,0,0,1,8.523,4.027,4.149,4.149,0,0,1,4.262,8.054,4.149,4.149,0,0,1,0,4.027,4.149,4.149,0,0,1,4.262,0Z" transform="translate(860.009 2802.808) rotate(-90)"/>
      <path id="Path_570" data-name="Path 570" class="cls-11" d="M171.961,0,0,.387" transform="translate(1039.292 2778.787) rotate(180)"/>
      <path id="Path_571" data-name="Path 571" class="cls-12" d="M4.262,0A4.149,4.149,0,0,1,8.523,4.027,4.149,4.149,0,0,1,4.262,8.054,4.149,4.149,0,0,1,0,4.027,4.149,4.149,0,0,1,4.262,0Z" transform="translate(862.938 2783.436) rotate(-90)"/>
      <path id="Path_755" data-name="Path 755" class="cls-13" d="M46.49,153.031V72.488q0-7.322-7.748-7.322H7.748Q0,65.166,0,57.844V0" transform="translate(861.84 2758.641) rotate(-90)"/>
      <path id="Path_757" data-name="Path 757" class="cls-14" d="M46.49,0V80.543q0,7.322-7.748,7.322H7.748Q0,87.865,0,95.187V152.3" transform="translate(1014.871 2798.546) rotate(90)"/>
      <path id="Path_758" data-name="Path 758" class="cls-10" d="M4.262,0A4.149,4.149,0,0,1,8.523,4.027,4.149,4.149,0,0,1,4.262,8.054,4.149,4.149,0,0,1,0,4.027,4.149,4.149,0,0,1,4.262,0Z" transform="translate(749.812 2793.896) rotate(90)"/>
      <path id="Path_759" data-name="Path 759" class="cls-9" d="M4.262,0A4.149,4.149,0,0,1,8.523,4.027,4.149,4.149,0,0,1,4.262,8.054,4.149,4.149,0,0,1,0,4.027,4.149,4.149,0,0,1,4.262,0Z" transform="translate(749.812 2754.38) rotate(90)"/>
      <path id="Path_760" data-name="Path 760" class="cls-11" d="M312.775,119.775,123.5,119" transform="translate(428.983 2658.625)"/>
      <path id="Path_761" data-name="Path 761" class="cls-12" d="M4.262,0A4.149,4.149,0,0,1,8.523,4.027,4.149,4.149,0,0,1,4.262,8.054,4.149,4.149,0,0,1,0,4.027,4.149,4.149,0,0,1,4.262,0Z" transform="translate(746.883 2773.751) rotate(90)"/>
      <path id="Path_762" data-name="Path 762" class="cls-14" d="M46.49,148.638V68.1q0-7.322-7.748-7.322H7.748Q0,60.773,0,53.451V0" transform="translate(745.053 2798.546) rotate(90)"/>
      <path id="Path_763" data-name="Path 763" class="cls-13" d="M46.49,0V80.543q0,7.322-7.748,7.322H7.748Q0,87.865,0,95.187v55.648" transform="translate(596.415 2758.641) rotate(-90)"/>
      <g id="ixlayer-logo" transform="translate(780.392 2745.452)">
        <path id="Path_4" data-name="Path 4" class="cls-15" d="M259,1090.935l24.832-8.551,24.761,8.551-24.761,8.62Z" transform="translate(-259 -1061.696)"/>
        <path id="Path_3" data-name="Path 3" class="cls-16" d="M259,1090.935l24.832-8.551,24.761,8.551-24.761,8.62Z" transform="translate(-259 -1071.055)"/>
        <path id="Path_2" data-name="Path 2" class="cls-17" d="M259,1090.935l24.832-8.551,24.761,8.551-24.761,8.62Z" transform="translate(-259 -1076.474)"/>
        <path id="Path_1" data-name="Path 1" class="cls-18" d="M259,1090.935l24.832-8.551,24.761,8.551-24.761,8.62Z" transform="translate(-259 -1082.385)"/>
      </g>
      <g id="Group_502" data-name="Group 502" transform="translate(521.451 2693.168)">
        <text id="Sequencing_Lab" data-name="Sequencing Lab" class="cls-19" transform="translate(40 49.407)"><tspan x="-54.214" y="0">Sequencing Lab</tspan></text>
        <g id="Group_542" data-name="Group 542" transform="translate(32.13 0)">
          <g id="Rectangle_163" data-name="Rectangle 163" class="cls-20" transform="translate(0 0)">
            <rect class="cls-56" width="34.052" height="34.052" rx="6"/>
            <rect class="cls-57" x="1.5" y="1.5" width="31.052" height="31.052" rx="4.5"/>
          </g>
          <g id="Group_256" data-name="Group 256" transform="translate(4.079 5.675)">
            <text id="A" class="cls-21" transform="translate(1 3)"><tspan x="-1.444" y="0">A</tspan></text>
            <text id="T" class="cls-22" transform="translate(7.626 1)"><tspan x="-0.305" y="0">T</tspan></text>
            <text id="C" class="cls-23" transform="translate(14.302 3)"><tspan x="-1.444" y="0">C</tspan></text>
            <text id="G" class="cls-24" transform="translate(20.864 2)"><tspan x="-1.167" y="0">G</tspan></text>
            <text id="A-2" data-name="A" class="cls-23" transform="translate(1 12.222)"><tspan x="-1.444" y="0">A</tspan></text>
            <text id="T-2" data-name="T" class="cls-25" transform="translate(7.626 10.222)"><tspan x="-0.305" y="0">T</tspan></text>
            <text id="C-2" data-name="C" class="cls-23" transform="translate(14.302 12.222)"><tspan x="-1.444" y="0">C</tspan></text>
            <text id="G-2" data-name="G" class="cls-24" transform="translate(20.864 11.222)"><tspan x="-1.167" y="0">G</tspan></text>
            <text id="A-3" data-name="A" class="cls-23" transform="translate(1 20.735)"><tspan x="-1.444" y="0">A</tspan></text>
            <text id="T-3" data-name="T" class="cls-22" transform="translate(7.626 18.735)"><tspan x="-0.305" y="0">T</tspan></text>
            <text id="C-3" data-name="C" class="cls-23" transform="translate(14.302 20.735)"><tspan x="-1.444" y="0">C</tspan></text>
            <text id="G-3" data-name="G" class="cls-26" transform="translate(20.864 19.735)"><tspan x="-1.167" y="0">G</tspan></text>
          </g>
        </g>
      </g>
      <g id="Group_503" data-name="Group 503" transform="translate(500 2761.329)">
        <text id="Physician_Networks" data-name="Physician Networks" class="cls-19" transform="translate(63 43.223)"><tspan x="-65.438" y="0">Physician Networks</tspan></text>
        <g id="Group_539" data-name="Group 539" transform="translate(10.381 0)">
          <g id="Dr_-_04" data-name="Dr - 04" transform="translate(0 0)">
            <path id="Path_542" data-name="Path 542" class="cls-27" d="M32.5,37.844,32.354,43.8l-3.973,2.7-3.9-2.625-.213-6.03s1.277-1.206.922-2.412h6.243C31.219,36.638,32.5,37.844,32.5,37.844Z" transform="translate(-11.355 -19.223)"/>
            <path id="Path_543" data-name="Path 543" class="cls-28" d="M33.593,50.11V48.053a5.6,5.6,0,0,0-2.767-4.824L27.918,41.6l-2.909-1.632h0l-2.554,6.172-.993-4.186.709-.78H19.618l.709.78-.993,4.186-2.483-6.172L13.942,41.6l-2.909,1.632a5.6,5.6,0,0,0-2.767,4.824V50.11H33.593Z" transform="translate(-3.868 -21.345)"/>
            <g id="Group_196" data-name="Group 196" transform="translate(10.456 9.351)">
              <ellipse id="Ellipse_286" data-name="Ellipse 286" class="cls-28" cx="1.419" cy="0.993" rx="1.419" ry="0.993" transform="translate(1.082 3.381) rotate(-112.421)"/>
              <ellipse id="Ellipse_287" data-name="Ellipse 287" class="cls-28" cx="1.419" cy="0.993" rx="1.419" ry="0.993" transform="translate(13.081 0.759) rotate(112.421)"/>
            </g>
            <path id="Path_544" data-name="Path 544" class="cls-28" d="M32.684,16.307a5.024,5.024,0,0,1-.071.993h0c-.426,3.334-2.767,8.726-5.6,8.726s-5.179-5.392-5.6-8.8a4.044,4.044,0,0,1-.071-.922,5.675,5.675,0,0,1,11.351,0Z" transform="translate(-9.983 -7.618)"/>
            <path id="Path_545" data-name="Path 545" class="cls-29" d="M20.967,15.643a3.126,3.126,0,0,1,.426-2.412s-.426-3.618,2.2-3.405a13.533,13.533,0,0,0,6.1,0,1.278,1.278,0,0,1,1.348,1.632s-.426,1.561.426,1.915l.355,2.2.355-1.632c.638-2.98-.071-5.959-2.838-7.307h-.071a1.022,1.022,0,0,1,1.064-.284c-4.682-2.98-7.8-.213-7.8-.213a6.716,6.716,0,0,0-2.27,6.6A4.372,4.372,0,0,0,20.967,15.643Z" transform="translate(-9.404 -4.968)"/>
            <g id="Group_197" data-name="Group 197" transform="translate(0 5.284)">
              <path id="Path_546" data-name="Path 546" class="cls-30" d="M6.6,30.707l2.909-1.632,2.625-1.49v-.071h0a6.734,6.734,0,0,0,.709-1.206A15.152,15.152,0,0,1,11.209,22.9a2.663,2.663,0,0,1-1.135-1.348A2.746,2.746,0,0,1,10,19.569a3.87,3.87,0,0,1-.284-2.128,8.108,8.108,0,0,1-.071-2.412,4.227,4.227,0,0,0-2.909.922,5.187,5.187,0,0,0-1.774,5.037,2.419,2.419,0,0,0,.355,1.7,1.054,1.054,0,0,0-.071,1.135,1.1,1.1,0,0,0,.78.709,12.845,12.845,0,0,0,1.419,2.98h0a2.357,2.357,0,0,1-.709,1.844h0l-2.27,1.277L2.128,31.842A4.174,4.174,0,0,0,0,35.531v.709H3.263A6.666,6.666,0,0,1,6.6,30.707Z" transform="translate(0 -14.958)"/>
              <path id="Path_547" data-name="Path 547" class="cls-30" d="M50.579,31.783l-2.2-1.277-2.27-1.277h0a2.358,2.358,0,0,1-.709-1.844h0a12.845,12.845,0,0,0,1.419-2.98,1.267,1.267,0,0,0,.78-.709c.213-.568.071-1.135-.284-1.277l.142-.568c.5-2.27-.071-4.611-2.128-5.6a.22.22,0,0,0-.142-.071.783.783,0,0,1,.78-.213A5.9,5.9,0,0,0,42.562,14.9a9.426,9.426,0,0,1-.071,3.973v.142a2.413,2.413,0,0,1,.142,2.412A2.663,2.663,0,0,1,41.5,22.773a15.151,15.151,0,0,1-1.632,3.405,6.735,6.735,0,0,0,.709,1.206h0v.071l5.463,3.121a6.536,6.536,0,0,1,3.334,5.6h3.334v-.709A4.413,4.413,0,0,0,50.579,31.783Z" transform="translate(-18.655 -14.899)"/>
            </g>
            <path id="Path_548" data-name="Path 548" class="cls-31" d="M45.218,50.913H43.87V49.565h-.922v1.348H41.6v.922h1.348v1.348h.922V51.835h1.348Z" transform="translate(-19.466 -25.837)"/>
          </g>
        </g>
      </g>
      <g id="Group_504" data-name="Group 504" transform="translate(503.449 2824.89)">
        <text id="Genetic_Counseling" data-name="Genetic Counseling" class="cls-19" transform="translate(60 52.127)"><tspan x="-65.457" y="0">Genetic Counseling</tspan></text>
        <g id="Group_541" data-name="Group 541" transform="translate(50.132 0)">
          <g id="Mask_Group_62" data-name="Mask Group 62" class="cls-32">
            <g id="dna" transform="translate(0 0)">
              <path id="Path_629" data-name="Path 629" class="cls-33" d="M26.689,35.9l-7.424-7.424a1.31,1.31,0,0,1,1.852-1.852l7.424,7.424A1.31,1.31,0,1,1,26.689,35.9Z" transform="translate(-8.835 -12.28)"/>
              <path id="Path_630" data-name="Path 630" class="cls-34" d="M32.143,37.652,28.431,33.94l-1.852,1.852L30.291,39.5a1.31,1.31,0,1,0,1.852-1.852Z" transform="translate(-12.437 -15.882)"/>
              <path id="Path_631" data-name="Path 631" class="cls-33" d="M48.3,14.295,40.872,6.871a1.31,1.31,0,1,1,1.852-1.852l7.424,7.424A1.31,1.31,0,0,1,48.3,14.295Z" transform="translate(-18.946 -2.169)"/>
              <path id="Path_632" data-name="Path 632" class="cls-34" d="M53.75,16.045l-3.712-3.712-1.852,1.852L51.9,17.9a1.31,1.31,0,0,0,1.852-1.852Z" transform="translate(-22.548 -5.771)"/>
              <path id="Path_633" data-name="Path 633" class="cls-35" d="M12.443,50.148,5.019,42.725a1.31,1.31,0,0,1,1.852-1.852L14.295,48.3a1.31,1.31,0,0,1-1.852,1.852Z" transform="translate(-2.169 -18.946)"/>
              <path id="Path_634" data-name="Path 634" class="cls-36" d="M17.9,51.9l-3.712-3.712-1.852,1.852,3.712,3.712A1.31,1.31,0,1,0,17.9,51.9Z" transform="translate(-5.771 -22.548)"/>
              <path id="Path_635" data-name="Path 635" class="cls-35" d="M34.05,28.541l-7.424-7.424a1.31,1.31,0,0,1,1.852-1.852L35.9,26.689a1.31,1.31,0,1,1-1.852,1.852Z" transform="translate(-12.28 -8.835)"/>
              <path id="Path_636" data-name="Path 636" class="cls-36" d="M39.5,30.291l-3.712-3.712L33.94,28.431l3.712,3.712A1.31,1.31,0,0,0,39.5,30.291Z" transform="translate(-15.882 -12.437)"/>
              <path id="Path_637" data-name="Path 637" class="cls-1" d="M24.37,12.873c2.471.292,6.755.346,9.3-2.2a1.31,1.31,0,0,0-1.852-1.852c-1.794,1.794-5.426,1.746-7.932,1.335-.353-2.1-.549-6.029,1.344-7.923A1.31,1.31,0,0,0,23.376.384c-2.544,2.544-2.49,6.828-2.2,9.3-8.35-.987-12.5,2.966-11.5,11.5-2.471-.292-6.755-.346-9.3,2.2a1.31,1.31,0,1,0,1.852,1.852c1.791-1.791,5.413-1.748,7.924-1.336.411,2.511.455,6.133-1.336,7.924a1.31,1.31,0,1,0,1.852,1.852c2.544-2.544,2.49-6.828,2.2-9.3C21.224,25.357,25.378,21.4,24.37,12.873ZM21.656,12.4c1.181,7.218-1.538,9.514-6.525,9.5a17.711,17.711,0,0,1-2.736-.235,17.706,17.706,0,0,1-.235-2.736C12.143,14.054,14.312,11.193,21.656,12.4Z" transform="translate(0 0)"/>
              <path id="Path_638" data-name="Path 638" class="cls-37" d="M20.3,31.792c8.35.987,12.5-2.966,11.5-11.5,2.471.292,6.755.346,9.3-2.2a1.31,1.31,0,0,0-1.852-1.852c-1.793,1.793-5.418,1.746-7.924,1.336l-2.236,2.236c1.181,7.218-1.538,9.514-6.525,9.5a17.71,17.71,0,0,1-2.736-.235l-2.236,2.236c.411,2.511.455,6.133-1.336,7.924A1.31,1.31,0,0,0,18.1,41.091C20.642,38.548,20.588,34.263,20.3,31.792Z" transform="translate(-7.423 -7.423)"/>
            </g>
          </g>
          <g id="Group_240" data-name="Group 240" transform="translate(15.685 15.801)">
            <g id="dna_-_2" data-name="dna - 2">
              <path id="Path_654" data-name="Path 654" class="cls-38" d="M20.931,25.79h1.063a6.837,6.837,0,0,0-1.084-1.8c-.293.019-.529.41-.529.9S20.627,25.79,20.931,25.79Z" transform="translate(-18.441 -19.916)"/>
              <path id="Path_656" data-name="Path 656" class="cls-30" d="M44.567,40.058l4.854,4.883a1.2,1.2,0,0,1,0,1.7l-.852.85a1.2,1.2,0,0,1-1.7,0L42.008,42.6Z" transform="translate(-31.506 -29.623)"/>
              <path id="Path_657" data-name="Path 657" class="cls-39" d="M41.986,42.6l2.561-2.561Z" transform="translate(-31.492 -29.611)"/>
              <path id="Path_658" data-name="Path 658" class="cls-40" d="M22.709,13.7a7.23,7.23,0,1,0,7.23,7.23A7.23,7.23,0,0,0,22.709,13.7Z" transform="translate(-15.479 -13.698)"/>
              <path id="Path_659" data-name="Path 659" class="cls-41" d="M30.551,25.568a5.43,5.43,0,0,1-5.076,3.542,5.441,5.441,0,0,1-4.931-3.158,5.425,5.425,0,0,1,4.919-7.687,5.441,5.441,0,0,1,4.93,3.158A5.384,5.384,0,0,1,30.551,25.568Z" transform="translate(-18.238 -16.457)"/>
              <path id="Path_662" data-name="Path 662" class="cls-34" d="M25.587,22.831,27.6,23.992v2.324l-2.013,1.162-2.013-1.162V23.992Z" transform="translate(-20.37 -19.215)"/>
              <path id="Path_663" data-name="Path 663" class="cls-36" d="M35.756,22.831l2.013,1.162v2.324l-2.013,1.162-2.013-1.162V23.992Z" transform="translate(-26.513 -19.215)"/>
              <path id="Path_664" data-name="Path 664" class="cls-33" d="M30.672,31.637,32.685,32.8v2.324l-2.013,1.162-2.013-1.162V32.8Z" transform="translate(-23.441 -24.535)"/>
              <path id="Path_665" data-name="Path 665" class="cls-42" d="M34.89,32.3l1.559.9Z" transform="translate(-27.206 -24.935)"/>
            </g>
          </g>
        </g>
      </g>
      <g id="Group_505" data-name="Group 505" transform="translate(1011.286 2698.592)">
        <text id="Web_App" data-name="Web App" class="cls-19" transform="translate(29 42.505)"><tspan x="-30.308" y="0">Web App</tspan></text>
        <g id="Laptop_-_01" data-name="Laptop - 01" transform="translate(10.175 0)">
          <g id="Group_615" data-name="Group 615" transform="translate(3.458 2.306)">
            <rect id="Rectangle_196" data-name="Rectangle 196" class="cls-28" width="29.973" height="18.445" transform="translate(0 0)"/>
          </g>
          <g id="Group_616" data-name="Group 616" transform="translate(3.458 2.306)">
            <rect id="Rectangle_197" data-name="Rectangle 197" class="cls-9" width="29.973" height="4.611" transform="translate(0 0)"/>
          </g>
          <g id="Group_617" data-name="Group 617" transform="translate(1.153 0)">
            <path id="Path_888" data-name="Path 888" class="cls-2" d="M47.928,75.984H18.655A2.655,2.655,0,0,0,16,78.633V99.616a.576.576,0,0,0,.576.576H50.008a.576.576,0,0,0,.576-.576V78.633A2.656,2.656,0,0,0,47.928,75.984ZM18.306,96.158V78.866a.576.576,0,0,1,.576-.576H47.7a.576.576,0,0,1,.576.576V96.158a.576.576,0,0,1-.576.576H18.882A.576.576,0,0,1,18.306,96.158Z" transform="translate(-16 -75.984)"/>
          </g>
          <g id="Group_618" data-name="Group 618" transform="translate(0 23.056)">
            <path id="Path_889" data-name="Path 889" class="cls-43" d="M36.313,395.984H.576A.576.576,0,0,0,0,396.56H0a2.31,2.31,0,0,0,2.308,2.308H34.582a2.31,2.31,0,0,0,2.308-2.308h0A.576.576,0,0,0,36.313,395.984Z" transform="translate(0 -395.984)"/>
          </g>
          <g id="Group_620" data-name="Group 620" transform="translate(5.764 4.035)">
            <g id="Group_619" data-name="Group 619" transform="translate(0 0)">
              <path id="Path_890" data-name="Path 890" class="cls-28" d="M84.611,133.137H80.576a.576.576,0,0,1,0-1.153h4.035a.576.576,0,0,1,0,1.153Z" transform="translate(-80 -131.984)"/>
            </g>
          </g>
          <g id="Group_622" data-name="Group 622" transform="translate(19.598 4.035)">
            <g id="Group_621" data-name="Group 621" transform="translate(0 0)">
              <path id="Path_891" data-name="Path 891" class="cls-28" d="M273.153,133.137h-.576a.576.576,0,0,1,0-1.153h.576a.576.576,0,0,1,0,1.153Z" transform="translate(-272 -131.984)"/>
            </g>
          </g>
          <g id="Group_624" data-name="Group 624" transform="translate(22.48 4.035)">
            <g id="Group_623" data-name="Group 623" transform="translate(0 0)">
              <path id="Path_892" data-name="Path 892" class="cls-28" d="M313.153,133.137h-.576a.576.576,0,1,1,0-1.153h.576a.576.576,0,0,1,0,1.153Z" transform="translate(-312 -131.984)"/>
            </g>
          </g>
          <g id="Group_626" data-name="Group 626" transform="translate(25.362 4.035)">
            <g id="Group_625" data-name="Group 625" transform="translate(0 0)">
              <path id="Path_893" data-name="Path 893" class="cls-28" d="M353.153,133.137h-.576a.576.576,0,0,1,0-1.153h.576a.576.576,0,0,1,0,1.153Z" transform="translate(-352 -131.984)"/>
            </g>
          </g>
          <g id="Group_628" data-name="Group 628" transform="translate(28.244 4.035)">
            <g id="Group_627" data-name="Group 627" transform="translate(0 0)">
              <path id="Path_894" data-name="Path 894" class="cls-28" d="M393.153,133.137h-.576a.576.576,0,0,1,0-1.153h.576a.576.576,0,1,1,0,1.153Z" transform="translate(-392 -131.984)"/>
            </g>
          </g>
          <g id="Group_629" data-name="Group 629" transform="translate(5.764 8.646)">
            <path id="Path_895" data-name="Path 895" class="cls-44" d="M90.375,206.359h-9.8a.576.576,0,0,1-.576-.576V196.56a.576.576,0,0,1,.576-.576h9.8a.576.576,0,0,1,.576.576v9.222A.576.576,0,0,1,90.375,206.359Z" transform="translate(-80 -195.984)"/>
          </g>
          <g id="Group_631" data-name="Group 631" transform="translate(18.445 8.646)">
            <g id="Group_630" data-name="Group 630" transform="translate(0 0)">
              <path id="Path_896" data-name="Path 896" class="cls-9" d="M267.528,197.137H256.576a.576.576,0,1,1,0-1.153h10.952a.576.576,0,1,1,0,1.153Z" transform="translate(-256 -195.984)"/>
            </g>
          </g>
          <g id="Group_633" data-name="Group 633" transform="translate(18.445 13.257)">
            <g id="Group_632" data-name="Group 632" transform="translate(0 0)">
              <path id="Path_897" data-name="Path 897" class="cls-45" d="M261.188,261.137h-4.611a.576.576,0,0,1,0-1.153h4.611a.576.576,0,1,1,0,1.153Z" transform="translate(-256 -259.984)"/>
            </g>
          </g>
          <g id="Group_635" data-name="Group 635" transform="translate(18.445 15.563)">
            <g id="Group_634" data-name="Group 634">
              <path id="Path_898" data-name="Path 898" class="cls-45" d="M261.188,293.137h-4.611a.576.576,0,0,1,0-1.153h4.611a.576.576,0,1,1,0,1.153Z" transform="translate(-256 -291.984)"/>
            </g>
          </g>
          <g id="Group_637" data-name="Group 637" transform="translate(18.445 17.868)">
            <g id="Group_636" data-name="Group 636">
              <path id="Path_899" data-name="Path 899" class="cls-45" d="M261.188,325.137h-4.611a.576.576,0,0,1,0-1.153h4.611a.576.576,0,1,1,0,1.153Z" transform="translate(-256 -323.984)"/>
            </g>
          </g>
          <g id="Group_639" data-name="Group 639" transform="translate(25.362 13.257)">
            <g id="Group_638" data-name="Group 638" transform="translate(0 0)">
              <path id="Path_900" data-name="Path 900" class="cls-45" d="M357.188,261.137h-4.611a.576.576,0,0,1,0-1.153h4.611a.576.576,0,0,1,0,1.153Z" transform="translate(-352 -259.984)"/>
            </g>
          </g>
          <g id="Group_641" data-name="Group 641" transform="translate(25.362 15.563)">
            <g id="Group_640" data-name="Group 640">
              <path id="Path_901" data-name="Path 901" class="cls-45" d="M357.188,293.137h-4.611a.576.576,0,0,1,0-1.153h4.611a.576.576,0,0,1,0,1.153Z" transform="translate(-352 -291.984)"/>
            </g>
          </g>
          <g id="Group_643" data-name="Group 643" transform="translate(25.362 17.868)">
            <g id="Group_642" data-name="Group 642">
              <path id="Path_902" data-name="Path 902" class="cls-45" d="M357.188,325.137h-4.611a.576.576,0,0,1,0-1.153h4.611a.576.576,0,0,1,0,1.153Z" transform="translate(-352 -323.984)"/>
            </g>
          </g>
          <g id="Group_645" data-name="Group 645" transform="translate(18.445 10.952)">
            <g id="Group_644" data-name="Group 644" transform="translate(0 0)">
              <path id="Path_903" data-name="Path 903" class="cls-12" d="M264.07,229.137h-7.493a.576.576,0,1,1,0-1.153h7.493a.576.576,0,1,1,0,1.153Z" transform="translate(-256 -227.984)"/>
            </g>
          </g>
          <g id="Group_646" data-name="Group 646" transform="translate(14.986 23.056)">
            <path id="Path_904" data-name="Path 904" class="cls-46" d="M209.153,397.137h4.611a1.153,1.153,0,0,0,1.153-1.153H208A1.153,1.153,0,0,0,209.153,397.137Z" transform="translate(-208 -395.984)"/>
          </g>
        </g>
      </g>
      <g id="Group_506" data-name="Group 506" transform="translate(1008.292 2829.539)">
        <g id="Group_501" data-name="Group 501" transform="translate(13.901 0)">
          <path id="Cloud_-01" data-name="Cloud -01" class="cls-47" d="M28.344,92.057a5.77,5.77,0,0,0-1.185.123c0-.021,0-.042,0-.062a9.51,9.51,0,0,0-18.72-2.366,7.042,7.042,0,0,0-1.5-.163,6.943,6.943,0,0,0,0,13.886h21.4a5.709,5.709,0,0,0,0-11.418Z" transform="translate(0 -82.608)"/>
          <g id="Group_274" data-name="Group 274" transform="translate(14.499 11.173)">
            <g id="Group_84" data-name="Group 84">
              <path id="Path_362" data-name="Path 362" class="cls-48" d="M31.884,6.784h-1.33v-1.8a4.988,4.988,0,1,0-9.976,0v1.8h-1.33a1,1,0,0,0-1,1V15.7a1,1,0,0,0,1,1H31.884a1,1,0,0,0,1-1V7.781A1,1,0,0,0,31.884,6.784Zm-5.321,5.263v.391a1,1,0,1,1-2,0v-.391a1,1,0,0,1,.333-1.937h1.33a1,1,0,0,1,.333,1.937Zm2-5.263H22.573v-1.8a2.993,2.993,0,1,1,5.986,0Z" transform="translate(-18.25)"/>
            </g>
          </g>
        </g>
        <text id="Admin_Portal" data-name="Admin Portal" class="cls-19" transform="translate(31 41.858)"><tspan x="-42.935" y="0">Admin Portal</tspan></text>
      </g>
      <g id="Group_507" data-name="Group 507" transform="translate(1023.131 2801.68)">
        <text id="Mobile_App" data-name="Mobile App" class="cls-19" transform="translate(30 14)"><tspan x="-37.112" y="0">Mobile App</tspan></text>
      </g>
      <g id="Group_510" data-name="Group 510" transform="translate(643.376 2639)">
        <g id="Group_508" data-name="Group 508" transform="translate(42.088 20.497)">
          <text id="Security_monitoring" data-name="Security monitoring" class="cls-49" transform="translate(182.224 8)"><tspan x="-55.634" y="0">Security monitoring</tspan></text>
          <text id="Identity_management" data-name="Identity management" class="cls-49" transform="translate(47 8)"><tspan x="-60.703" y="0">Identity management</tspan></text>
        </g>
        <g id="Group_509" data-name="Group 509" transform="translate(0 0)">
          <text id="HIPAA_architecture" data-name="HIPAA architecture" class="cls-49" transform="translate(22 9)"><tspan x="-54.438" y="0">HIPAA architecture</tspan></text>
          <text id="CLIA_compliance" data-name="CLIA compliance" class="cls-49" transform="translate(156.4 8.505)"><tspan x="-48.779" y="0">CLIA compliance</tspan></text>
          <text id="Machine_learning" data-name="Machine learning" class="cls-49" transform="translate(286.697 9)"><tspan x="-49.502" y="0">Machine learning</tspan></text>
        </g>
        <text id="Hands-off_operations" data-name="Hands-off operations" class="cls-49" transform="translate(159.648 45.498)"><tspan x="-60.227" y="0">Hands-off operations</tspan></text>
      </g>
      <path id="Path_768" data-name="Path 768" class="cls-50" d="M77.484,0V51.692q0,6.461-7.748,6.461H7.748Q0,58.153,0,64.615V91.753" transform="translate(944.074 2817.142) rotate(90)"/>
      <path id="Path_769" data-name="Path 769" class="cls-51" d="M4.262,0A4.149,4.149,0,0,1,8.523,4.027,4.149,4.149,0,0,1,4.262,8.054,4.149,4.149,0,0,1,0,4.027,4.149,4.149,0,0,1,4.262,0Z" transform="translate(851.955 2821.404) rotate(-90)"/>
      <path id="Path_770" data-name="Path 770" class="cls-50" d="M77.484,97.383V38.807q0-7.322-7.748-7.322H7.748Q0,31.485,0,24.163V0" transform="translate(752.375 2817.142) rotate(90)"/>
      <path id="Path_771" data-name="Path 771" class="cls-51" d="M4.262,0A4.149,4.149,0,0,1,8.523,4.027,4.149,4.149,0,0,1,4.262,8.054,4.149,4.149,0,0,1,0,4.027,4.149,4.149,0,0,1,4.262,0Z" transform="translate(757.866 2812.493) rotate(90)"/>
      <g id="Group_511" data-name="Group 511" transform="translate(540.33 2873.705)">
        <text id="Apple_Health_kit_Research_Kit_" data-name="Apple Health kit &amp; Research Kit " class="cls-19" transform="translate(0 42.921)"><tspan x="5.387" y="12">Apple Health kit &amp; Research </tspan></text>
        <g id="apple" transform="translate(77.685)">
          <path id="Path_21" data-name="Path 21" class="cls-2" d="M70.706,18.093a7.7,7.7,0,0,1,3.676-6.483,7.952,7.952,0,0,0-6.226-3.374C65.5,7.967,62.981,9.8,61.635,9.8s-3.419-1.522-5.618-1.482a8.331,8.331,0,0,0-7.044,4.269c-3,5.211-.769,12.93,2.158,17.157,1.43,2.069,3.136,4.392,5.375,4.309,2.156-.086,2.972-1.4,5.579-1.4s3.34,1.4,5.622,1.352c2.32-.043,3.79-2.108,5.211-4.183a18.777,18.777,0,0,0,2.359-4.843A7.521,7.521,0,0,1,70.706,18.093ZM66.418,5.438A7.5,7.5,0,0,0,68.19,0a7.634,7.634,0,0,0-5.015,2.579,7.139,7.139,0,0,0-1.808,5.269A6.315,6.315,0,0,0,66.418,5.438Z" transform="translate(-47.548)"/>
        </g>
      </g>
      <g id="Group_512" data-name="Group 512" transform="translate(953.616 2874.029)">
        <text id="Data" class="cls-19" transform="translate(14.994 48.632)"><tspan x="-15.842" y="0">Data</tspan></text>
        <g id="Mask_Group_65" data-name="Mask Group 65" class="cls-52" transform="translate(0)">
          <g id="Binary_-_01" data-name="Binary - 01" transform="translate(0)">
            <g id="Group_514" data-name="Group 514">
              <g id="Group_513" data-name="Group 513">
                <path id="Path_773" data-name="Path 773" class="cls-2" d="M31.059,0H2.993A3,3,0,0,0,0,2.993V31.059a3,3,0,0,0,2.993,2.993H31.059a3,3,0,0,0,2.993-2.993V2.993A3,3,0,0,0,31.059,0Zm1,31.059a1,1,0,0,1-1,1H2.993a1,1,0,0,1-1-1V2.993a1,1,0,0,1,1-1H31.059a1,1,0,0,1,1,1Z"/>
              </g>
            </g>
            <g id="Group_516" data-name="Group 516" transform="translate(6.052 4.589)">
              <g id="Group_515" data-name="Group 515">
                <path id="Path_774" data-name="Path 774" class="cls-2" d="M12.373,8.625a1,1,0,0,0-1,1v4.922a1,1,0,0,0,2,0V9.623A1,1,0,0,0,12.373,8.625Z" transform="translate(-11.375 -8.625)"/>
              </g>
            </g>
            <g id="Group_518" data-name="Group 518" transform="translate(11.373 4.589)">
              <g id="Group_517" data-name="Group 517">
                <path id="Path_775" data-name="Path 775" class="cls-2" d="M23.7,8.625a2.33,2.33,0,0,0-2.328,2.328v2.261a2.328,2.328,0,0,0,4.656,0V10.953A2.33,2.33,0,0,0,23.7,8.625Zm.333,4.589a.333.333,0,0,1-.665,0V10.953a.333.333,0,1,1,.665,0Z" transform="translate(-21.375 -8.625)"/>
              </g>
            </g>
            <g id="Group_520" data-name="Group 520" transform="translate(19.354 4.589)">
              <g id="Group_519" data-name="Group 519">
                <path id="Path_776" data-name="Path 776" class="cls-2" d="M37.373,8.625a1,1,0,0,0-1,1v4.922a1,1,0,0,0,2,0V9.623A1,1,0,0,0,37.373,8.625Z" transform="translate(-36.375 -8.625)"/>
              </g>
            </g>
            <g id="Group_522" data-name="Group 522" transform="translate(24.674 4.589)">
              <g id="Group_521" data-name="Group 521">
                <path id="Path_777" data-name="Path 777" class="cls-2" d="M48.7,8.625a2.33,2.33,0,0,0-2.328,2.328v2.261a2.328,2.328,0,0,0,4.656,0V10.953A2.33,2.33,0,0,0,48.7,8.625Zm.333,4.589a.333.333,0,0,1-.665,0V10.953a.333.333,0,0,1,.665,0Z" transform="translate(-46.375 -8.625)"/>
              </g>
            </g>
            <g id="Group_524" data-name="Group 524" transform="translate(12.703 13.568)">
              <g id="Group_523" data-name="Group 523">
                <path id="Path_778" data-name="Path 778" class="cls-2" d="M24.873,25.5a1,1,0,0,0-1,1v4.922a1,1,0,0,0,2,0V26.5A1,1,0,0,0,24.873,25.5Z" transform="translate(-23.875 -25.5)"/>
              </g>
            </g>
            <g id="Group_526" data-name="Group 526" transform="translate(4.722 13.568)">
              <g id="Group_525" data-name="Group 525">
                <path id="Path_779" data-name="Path 779" class="cls-2" d="M11.2,25.5a2.33,2.33,0,0,0-2.328,2.328v2.261a2.328,2.328,0,0,0,4.656,0V27.828A2.33,2.33,0,0,0,11.2,25.5Zm.333,4.589a.333.333,0,0,1-.665,0V27.828a.333.333,0,0,1,.665,0Z" transform="translate(-8.875 -25.5)"/>
              </g>
            </g>
            <g id="Group_528" data-name="Group 528" transform="translate(19.354 13.568)">
              <g id="Group_527" data-name="Group 527">
                <path id="Path_780" data-name="Path 780" class="cls-2" d="M37.373,25.5a1,1,0,0,0-1,1v4.922a1,1,0,1,0,2,0V26.5A1,1,0,0,0,37.373,25.5Z" transform="translate(-36.375 -25.5)"/>
              </g>
            </g>
            <g id="Group_530" data-name="Group 530" transform="translate(24.674 13.568)">
              <g id="Group_529" data-name="Group 529">
                <path id="Path_781" data-name="Path 781" class="cls-2" d="M48.7,25.5a2.33,2.33,0,0,0-2.328,2.328v2.261a2.328,2.328,0,1,0,4.656,0V27.828A2.33,2.33,0,0,0,48.7,25.5Zm.333,4.589a.333.333,0,0,1-.665,0V27.828a.333.333,0,0,1,.665,0Z" transform="translate(-46.375 -25.5)"/>
              </g>
            </g>
            <g id="Group_532" data-name="Group 532" transform="translate(6.052 22.546)">
              <g id="Group_531" data-name="Group 531">
                <path id="Path_782" data-name="Path 782" class="cls-2" d="M12.373,42.375a1,1,0,0,0-1,1v4.922a1,1,0,1,0,2,0V43.373A1,1,0,0,0,12.373,42.375Z" transform="translate(-11.375 -42.375)"/>
              </g>
            </g>
            <g id="Group_534" data-name="Group 534" transform="translate(11.373 22.546)">
              <g id="Group_533" data-name="Group 533">
                <path id="Path_783" data-name="Path 783" class="cls-2" d="M23.7,42.375A2.33,2.33,0,0,0,21.375,44.7v2.261a2.328,2.328,0,0,0,4.656,0V44.7A2.33,2.33,0,0,0,23.7,42.375Zm.333,4.589a.333.333,0,0,1-.665,0V44.7a.333.333,0,0,1,.665,0Z" transform="translate(-21.375 -42.375)"/>
              </g>
            </g>
            <g id="Group_536" data-name="Group 536" transform="translate(26.005 22.546)">
              <g id="Group_535" data-name="Group 535">
                <path id="Path_784" data-name="Path 784" class="cls-2" d="M49.873,42.375a1,1,0,0,0-1,1v4.922a1,1,0,1,0,2,0V43.373A1,1,0,0,0,49.873,42.375Z" transform="translate(-48.875 -42.375)"/>
              </g>
            </g>
            <g id="Group_538" data-name="Group 538" transform="translate(18.024 22.546)">
              <g id="Group_537" data-name="Group 537">
                <path id="Path_785" data-name="Path 785" class="cls-2" d="M36.2,42.375A2.33,2.33,0,0,0,33.875,44.7v2.261a2.328,2.328,0,0,0,4.656,0V44.7A2.33,2.33,0,0,0,36.2,42.375Zm.333,4.589a.333.333,0,0,1-.665,0V44.7a.333.333,0,0,1,.665,0Z" transform="translate(-33.875 -42.375)"/>
              </g>
            </g>
          </g>
        </g>
      </g>
      <path id="Path_772" data-name="Path 772" class="cls-53" d="M345,103.245V80" transform="translate(460.094 2609.681)"/>
      <g id="Group_647" data-name="Group 647" transform="translate(1052.125 2761.354)">
        <rect id="Rectangle_198" data-name="Rectangle 198" class="cls-54" width="18.305" height="37.192" rx="3" transform="translate(0)"/>
        <rect id="Rectangle_199" data-name="Rectangle 199" class="cls-44" width="16.841" height="27.119" transform="translate(0.732 4.649)"/>
        <circle id="Ellipse_440" data-name="Ellipse 440" class="cls-2" cx="1.241" cy="1.241" r="1.241" transform="translate(8.054 33.318)"/>
        <circle id="Ellipse_441" data-name="Ellipse 441" class="cls-2" cx="0.532" cy="0.532" r="0.532" transform="translate(5.125 1.55)"/>
        <g id="Rectangle_200" data-name="Rectangle 200" class="cls-55" transform="translate(7.322 1.55)">
          <rect class="cls-56" width="4.393" height="1.162" rx="0.581"/>
          <rect class="cls-57" x="0.5" y="0.5" width="3.393" height="0.162" rx="0.081"/>
        </g>
        <g id="apple-2" data-name="apple" transform="translate(6.224 13.2)">
          <path id="Path_21-2" data-name="Path 21" class="cls-2" d="M52.338,3.743A1.594,1.594,0,0,1,53.1,2.4a1.645,1.645,0,0,0-1.288-.7c-.549-.056-1.07.323-1.349.323s-.707-.315-1.162-.306a1.723,1.723,0,0,0-1.457.883,3.665,3.665,0,0,0,.446,3.549c.3.428.649.908,1.112.891.446-.018.615-.289,1.154-.289s.691.289,1.163.28S52.5,6.6,52.8,6.169a3.884,3.884,0,0,0,.488-1A1.556,1.556,0,0,1,52.338,3.743Zm-.887-2.618A1.552,1.552,0,0,0,51.818,0,1.579,1.579,0,0,0,50.78.533a1.477,1.477,0,0,0-.374,1.09A1.306,1.306,0,0,0,51.451,1.125Z" transform="translate(-47.548)"/>
        </g>
      </g>
    </g>
  </g>
</svg>
